SPRITE skeleton_sprite "sprite/skeleton.png" 4 4 FAST 5
SPRITE creep_sprite "sprite/creep.png" 4 4 FAST 5
SPRITE bullet_sprite "sprite/bullet.png" 1 1 FAST 1
SPRITE fireball_sprite "sprite/fireball.png" 1 2 FAST 2
SPRITE selection_sprite "sprite/selection.png" 4 4 FAST 4
SPRITE radius_sprite "sprite/radius.png" 16 16 0 4
